<?xml version="1.0" encoding="UTF-8" standalone="no"?>
<!-- Created with Inkscape (http://www.inkscape.org/) -->

<svg
   xmlns:dc="http://purl.org/dc/elements/1.1/"
   xmlns:cc="http://creativecommons.org/ns#"
   xmlns:rdf="http://www.w3.org/1999/02/22-rdf-syntax-ns#"
   xmlns:svg="http://www.w3.org/2000/svg"
   xmlns="http://www.w3.org/2000/svg"
   xmlns:sodipodi="http://sodipodi.sourceforge.net/DTD/sodipodi-0.dtd"
   xmlns:inkscape="http://www.inkscape.org/namespaces/inkscape"
   width="297mm"
   height="210mm"
   viewBox="0 0 297 210"
   version="1.1"
   id="svg8"
   inkscape:version="0.92.3 (2405546, 2018-03-11)"
   sodipodi:docname="usercase-checkmymenu.svg">
  <defs
     id="defs2">
    <marker
       inkscape:stockid="Arrow1Lend"
       orient="auto"
       refY="0.0"
       refX="0.0"
       id="marker1375"
       style="overflow:visible;"
       inkscape:isstock="true">
      <path
         id="path1373"
         d="M 0.0,0.0 L 5.0,-5.0 L -12.5,0.0 L 5.0,5.0 L 0.0,0.0 z "
         style="fill-rule:evenodd;stroke:#000000;stroke-width:1pt;stroke-opacity:1;fill:#000000;fill-opacity:1"
         transform="scale(0.8) rotate(180) translate(12.5,0)" />
    </marker>
    <marker
       inkscape:stockid="Arrow1Lend"
       orient="auto"
       refY="0.0"
       refX="0.0"
       id="Arrow1Lend"
       style="overflow:visible;"
       inkscape:isstock="true">
      <path
         id="path929"
         d="M 0.0,0.0 L 5.0,-5.0 L -12.5,0.0 L 5.0,5.0 L 0.0,0.0 z "
         style="fill-rule:evenodd;stroke:#000000;stroke-width:1pt;stroke-opacity:1;fill:#000000;fill-opacity:1"
         transform="scale(0.8) rotate(180) translate(12.5,0)" />
    </marker>
    <marker
       inkscape:stockid="Arrow1Lend"
       orient="auto"
       refY="0"
       refX="0"
       id="Arrow1Lend-2"
       style="overflow:visible"
       inkscape:isstock="true">
      <path
         inkscape:connector-curvature="0"
         id="path929-8"
         d="M 0,0 5,-5 -12.5,0 5,5 Z"
         style="fill:#000000;fill-opacity:1;fill-rule:evenodd;stroke:#000000;stroke-width:1.00000003pt;stroke-opacity:1"
         transform="matrix(-0.8,0,0,-0.8,-10,0)" />
    </marker>
  </defs>
  <sodipodi:namedview
     id="base"
     pagecolor="#ffffff"
     bordercolor="#666666"
     borderopacity="1.0"
     inkscape:pageopacity="0.0"
     inkscape:pageshadow="2"
     inkscape:zoom="0.7"
     inkscape:cx="612.62064"
     inkscape:cy="342.49592"
     inkscape:document-units="mm"
     inkscape:current-layer="layer1"
     showgrid="false"
     inkscape:window-width="1600"
     inkscape:window-height="845"
     inkscape:window-x="0"
     inkscape:window-y="0"
     inkscape:window-maximized="1"
     inkscape:measure-start="0,0"
     inkscape:measure-end="0,0" />
  <metadata
     id="metadata5">
    <rdf:RDF>
      <cc:Work
         rdf:about="">
        <dc:format>image/svg+xml</dc:format>
        <dc:type
           rdf:resource="http://purl.org/dc/dcmitype/StillImage" />
        <dc:title></dc:title>
      </cc:Work>
    </rdf:RDF>
  </metadata>
  <g
     inkscape:label="Calque 1"
     inkscape:groupmode="layer"
     id="layer1"
     transform="translate(0,-87)">
    <rect
       style="fill:none;fill-opacity:1;stroke:#000000;stroke-width:0.322;stroke-miterlimit:4;stroke-dasharray:none;stroke-opacity:0.88829794"
       id="rect10"
       width="171.22322"
       height="171.22322"
       x="48.990376"
       y="102.11208" />
    <circle
       style="fill:none;fill-opacity:1;stroke:#000000;stroke-width:0.60000002;stroke-miterlimit:4;stroke-dasharray:none;stroke-opacity:0.88829794"
       id="path12"
       cx="15.206151"
       cy="164.96774"
       r="6.0822411" />
    <path
       style="fill:none;stroke:#000000;stroke-width:0.60000002;stroke-linecap:butt;stroke-linejoin:miter;stroke-miterlimit:4;stroke-dasharray:none;stroke-opacity:1"
       d="M 14.914926,171.3924 14.710453,185.77395 8.4740076,197.2162"
       id="path14"
       inkscape:connector-curvature="0" />
    <path
       style="fill:none;stroke:#000000;stroke-width:0.60000002;stroke-linecap:butt;stroke-linejoin:miter;stroke-miterlimit:4;stroke-dasharray:none;stroke-opacity:1"
       d="m 14.710453,185.77395 5.72526,11.96712"
       id="path16"
       inkscape:connector-curvature="0" />
    <path
       style="fill:none;stroke:#000000;stroke-width:0.60000002;stroke-linecap:butt;stroke-linejoin:miter;stroke-miterlimit:4;stroke-dasharray:none;stroke-opacity:1"
       d="m 7.1449286,175.27647 15.7444664,0.52487"
       id="path18"
       inkscape:connector-curvature="0" />
    <circle
       style="fill:none;fill-opacity:1;stroke:#000000;stroke-width:0.60000002;stroke-miterlimit:4;stroke-dasharray:none;stroke-opacity:0.88829794"
       id="path12-3"
       cx="251.63025"
       cy="164.55864"
       r="6.0822411" />
    <path
       style="fill:none;stroke:#000000;stroke-width:0.60000002;stroke-linecap:butt;stroke-linejoin:miter;stroke-miterlimit:4;stroke-dasharray:none;stroke-opacity:1"
       d="m 251.33903,170.98331 -0.20447,14.38155 -6.23645,11.44225"
       id="path14-6"
       inkscape:connector-curvature="0" />
    <path
       style="fill:none;stroke:#000000;stroke-width:0.60000002;stroke-linecap:butt;stroke-linejoin:miter;stroke-miterlimit:4;stroke-dasharray:none;stroke-opacity:1"
       d="m 251.13456,185.36486 5.72526,11.96712"
       id="path16-7"
       inkscape:connector-curvature="0" />
    <path
       style="fill:none;stroke:#000000;stroke-width:0.60000002;stroke-linecap:butt;stroke-linejoin:miter;stroke-miterlimit:4;stroke-dasharray:none;stroke-opacity:1"
       d="m 243.56903,174.86738 15.74447,0.52487"
       id="path18-5"
       inkscape:connector-curvature="0" />
    <ellipse
       style="fill:none;fill-opacity:1;stroke:#000000;stroke-width:0.60000002;stroke-miterlimit:4;stroke-dasharray:none;stroke-opacity:0.88829794"
       id="path852"
       cx="78.176338"
       cy="128.75385"
       rx="14.833458"
       ry="10.289877" />
    <text
       xml:space="preserve"
       style="font-style:normal;font-variant:normal;font-weight:normal;font-stretch:normal;font-size:10.58333302px;line-height:1.25;font-family:Chilanka;-inkscape-font-specification:Chilanka;letter-spacing:0px;word-spacing:0px;fill:#000000;fill-opacity:1;stroke:none;stroke-width:0.26458332"
       x="66.077637"
       y="129.92412"
       id="text856"><tspan
         sodipodi:role="line"
         id="tspan854"
         x="66.077637"
         y="129.92412"
         style="font-size:4.93888903px;stroke-width:0.26458332">connexion</tspan></text>
    <path
       style="fill:none;stroke:#000000;stroke-width:0.26458332px;stroke-linecap:butt;stroke-linejoin:miter;stroke-opacity:1"
       d="M 24.655557,182.92161 65.193501,133.97369"
       id="path858"
       inkscape:connector-curvature="0"
       sodipodi:nodetypes="cc" />
    <g
       id="g1221"
       transform="translate(-12.828937,-9.0871639)">
      <ellipse
         ry="10.289877"
         rx="14.833459"
         cy="137.68304"
         cx="142.49702"
         id="path852-2"
         style="fill:none;fill-opacity:1;stroke:#000000;stroke-width:0.60000002;stroke-miterlimit:4;stroke-dasharray:none;stroke-opacity:0.88829794" />
      <text
         id="text856-7"
         y="138.85332"
         x="130.39832"
         style="font-style:normal;font-variant:normal;font-weight:normal;font-stretch:normal;font-size:10.58333302px;line-height:1.25;font-family:Chilanka;-inkscape-font-specification:Chilanka;letter-spacing:0px;word-spacing:0px;fill:#000000;fill-opacity:1;stroke:none;stroke-width:0.26458332"
         xml:space="preserve"><tspan
           style="font-size:4.93888903px;stroke-width:0.26458332"
           y="138.85332"
           x="130.39832"
           id="tspan854-0"
           sodipodi:role="line">inscription</tspan></text>
    </g>
    <path
       style="fill:none;stroke:#000000;stroke-width:0.26458332;stroke-linecap:butt;stroke-linejoin:miter;stroke-miterlimit:4;stroke-dasharray:0.52916663, 1.05833327;stroke-dashoffset:0;stroke-opacity:1;marker-end:url(#Arrow1Lend)"
       d="m 93.277065,129.55565 20.847015,-0.53454"
       id="path924"
       inkscape:connector-curvature="0"
       sodipodi:nodetypes="cc" />
    <text
       xml:space="preserve"
       style="font-style:normal;font-variant:normal;font-weight:normal;font-stretch:normal;font-size:2.58784008px;line-height:1.25;font-family:Chilanka;-inkscape-font-specification:Chilanka;letter-spacing:0px;word-spacing:0px;fill:#000000;fill-opacity:1;stroke:none;stroke-width:0.064696"
       x="93.893898"
       y="134.56509"
       id="text1216"
       transform="rotate(-1.3251857)"><tspan
         sodipodi:role="line"
         id="tspan1214"
         x="93.893898"
         y="134.56509"
         style="stroke-width:0.064696">&lt;include&gt;</tspan></text>
    <ellipse
       style="fill:none;fill-opacity:1;stroke:#000000;stroke-width:0.64999998;stroke-miterlimit:4;stroke-dasharray:none;stroke-dashoffset:0;stroke-opacity:0.88829794"
       id="path1313"
       cx="97.98069"
       cy="174.32329"
       rx="25.608942"
       ry="15.827197" />
    <text
       xml:space="preserve"
       style="font-style:normal;font-variant:normal;font-weight:normal;font-stretch:normal;font-size:10.58333302px;line-height:0.5;font-family:Chilanka;-inkscape-font-specification:Chilanka;text-align:center;letter-spacing:0px;word-spacing:0px;text-anchor:middle;fill:#000000;fill-opacity:1;stroke:none;stroke-width:0.26458332"
       x="97.586052"
       y="173.25421"
       id="text1317"><tspan
         sodipodi:role="line"
         x="98.261292"
         y="173.25421"
         style="font-size:4.93888903px;line-height:0.5;text-align:center;text-anchor:middle;stroke-width:0.26458332"
         id="tspan1319">ajout/suppression </tspan><tspan
         sodipodi:role="line"
         x="97.586052"
         y="178.54588"
         style="font-size:4.93888903px;line-height:0.5;text-align:center;text-anchor:middle;stroke-width:0.26458332"
         id="tspan1323">d'aliments au menu</tspan></text>
    <path
       style="fill:none;stroke:#000000;stroke-width:0.26458332px;stroke-linecap:butt;stroke-linejoin:miter;stroke-opacity:1"
       d="m 83.052876,138.13143 6.236609,20.78869"
       id="path1325"
       inkscape:connector-curvature="0" />
    <ellipse
       style="fill:none;fill-opacity:1;stroke:#000000;stroke-width:0.64999998;stroke-miterlimit:4;stroke-dasharray:none;stroke-dashoffset:0;stroke-opacity:0.88829794"
       id="path1313-9"
       cx="91.746323"
       cy="230.54662"
       rx="25.608942"
       ry="15.827197" />
    <text
       xml:space="preserve"
       style="font-style:normal;font-variant:normal;font-weight:normal;font-stretch:normal;font-size:10.58333302px;line-height:0.5;font-family:Chilanka;-inkscape-font-specification:Chilanka;letter-spacing:0px;word-spacing:0px;fill:#000000;fill-opacity:1;stroke:none;stroke-width:0.26458332"
       x="91.162689"
       y="229.28854"
       id="text1317-3"><tspan
         sodipodi:role="line"
         x="91.162689"
         y="229.28854"
         style="font-size:4.93888903px;line-height:0.5;text-align:center;text-anchor:middle;stroke-width:0.26458332"
         id="tspan1323-0">lecture de l'IC total</tspan><tspan
         sodipodi:role="line"
         x="91.162689"
         y="234.58022"
         style="font-size:4.93888903px;line-height:0.5;text-align:center;text-anchor:middle;stroke-width:0.26458332"
         id="tspan1369">et du commentaire</tspan></text>
    <ellipse
       style="fill:none;fill-opacity:1;stroke:#000000;stroke-width:0.64999998;stroke-miterlimit:4;stroke-dasharray:none;stroke-dashoffset:0;stroke-opacity:0.88829794"
       id="path1313-6"
       cx="152.38303"
       cy="192.16791"
       rx="25.608942"
       ry="15.827197" />
    <text
       xml:space="preserve"
       style="font-style:normal;font-variant:normal;font-weight:normal;font-stretch:normal;font-size:10.58333302px;line-height:0.5;font-family:Chilanka;-inkscape-font-specification:Chilanka;text-align:center;letter-spacing:0px;word-spacing:0px;text-anchor:middle;fill:#000000;fill-opacity:1;stroke:none;stroke-width:0.26458332"
       x="151.81046"
       y="191.09883"
       id="text1317-2"><tspan
         sodipodi:role="line"
         x="151.81046"
         y="191.09883"
         style="font-size:4.93888903px;line-height:0.5;text-align:center;text-anchor:middle;stroke-width:0.26458332"
         id="tspan1323-8">appel téléphonique</tspan><tspan
         sodipodi:role="line"
         x="151.81046"
         y="196.3905"
         style="font-size:4.93888903px;line-height:0.5;text-align:center;text-anchor:middle;stroke-width:0.26458332"
         id="tspan1365">à un spécialiste</tspan></text>
    <path
       style="fill:none;stroke:#000000;stroke-width:0.26458332;stroke-linecap:butt;stroke-linejoin:miter;stroke-miterlimit:4;stroke-dasharray:0.52916663, 0.52916663;stroke-dashoffset:0;stroke-opacity:1;marker-end:url(#marker1375)"
       d="m 91.557345,214.67161 2.64583,-24.75744"
       id="path1371"
       inkscape:connector-curvature="0" />
    <text
       xml:space="preserve"
       style="font-style:normal;font-variant:normal;font-weight:normal;font-stretch:normal;font-size:2.58784008px;line-height:1.25;font-family:Chilanka;-inkscape-font-specification:Chilanka;letter-spacing:0px;word-spacing:0px;fill:#000000;fill-opacity:1;stroke:none;stroke-width:0.064696"
       x="73.929482"
       y="206.1246"
       id="text1216-7"
       transform="rotate(-1.3251858)"><tspan
         sodipodi:role="line"
         id="tspan1214-9"
         x="73.929482"
         y="206.1246"
         style="stroke-width:0.064696">&lt;extend&gt;</tspan></text>
    <path
       style="fill:none;stroke:#000000;stroke-width:0.26458332px;stroke-linecap:butt;stroke-linejoin:miter;stroke-opacity:1"
       d="m 117.25972,184.24453 9.76253,4.78331"
       id="path1425"
       inkscape:connector-curvature="0"
       sodipodi:nodetypes="cc" />
    <text
       xml:space="preserve"
       style="font-style:normal;font-variant:normal;font-weight:normal;font-stretch:normal;font-size:4.8872056px;line-height:1.25;font-family:Chilanka;-inkscape-font-specification:Chilanka;letter-spacing:0px;word-spacing:0px;fill:#000000;fill-opacity:1;stroke:none;stroke-width:0.12218013"
       x="2.9384382"
       y="204.125"
       id="text1216-2"
       transform="rotate(-1.3251858)"><tspan
         sodipodi:role="line"
         id="tspan1214-0"
         x="2.9384382"
         y="204.125"
         style="stroke-width:0.12218013">USER</tspan></text>
    <text
       xml:space="preserve"
       style="font-style:normal;font-variant:normal;font-weight:normal;font-stretch:normal;font-size:4.8872056px;line-height:1.25;font-family:Chilanka;-inkscape-font-specification:Chilanka;letter-spacing:0px;word-spacing:0px;fill:#000000;fill-opacity:1;stroke:none;stroke-width:0.12218013"
       x="231.68457"
       y="210.58066"
       id="text1216-2-2"
       transform="rotate(-1.3251858)"><tspan
         sodipodi:role="line"
         id="tspan1214-0-3"
         x="231.68457"
         y="210.58066"
         style="stroke-width:0.12218013">WEBMASTER</tspan></text>
    <text
       xml:space="preserve"
       style="font-style:normal;font-variant:normal;font-weight:normal;font-stretch:normal;font-size:10.58333302px;line-height:1.25;font-family:Chilanka;-inkscape-font-specification:Chilanka;letter-spacing:0px;word-spacing:0px;fill:#000000;fill-opacity:1;stroke:none;stroke-width:0.26458332"
       x="94.613411"
       y="286.30923"
       id="text1455"><tspan
         sodipodi:role="line"
         id="tspan1453"
         x="94.613411"
         y="286.30923"
         style="stroke-width:0.26458332">Check my Menu</tspan></text>
    <path
       style="fill:none;stroke:#000000;stroke-width:0.26458332px;stroke-linecap:butt;stroke-linejoin:miter;stroke-opacity:1"
       d="M 240.47995,182.73262 89.761955,135.29661"
       id="path1832"
       inkscape:connector-curvature="0"
       sodipodi:nodetypes="cc" />
    <g
       id="g1884"
       transform="translate(-6.8035714,-139.09524)">
      <ellipse
         ry="12.037925"
         rx="27.423069"
         cy="259.39423"
         cx="260.94354"
         id="path1313-1"
         style="fill:none;fill-opacity:1;stroke:#000000;stroke-width:0.5866099;stroke-miterlimit:4;stroke-dasharray:none;stroke-dashoffset:0;stroke-opacity:0.88829794" />
      <text
         transform="scale(0.97176177,1.0290588)"
         id="text1317-29"
         y="251.35495"
         x="268.54791"
         style="font-style:normal;font-variant:normal;font-weight:normal;font-stretch:normal;font-size:7.85700655px;line-height:0.5;font-family:Chilanka;-inkscape-font-specification:Chilanka;text-align:center;letter-spacing:0px;word-spacing:0px;text-anchor:middle;fill:#000000;fill-opacity:1;stroke:none;stroke-width:0.19642515"
         xml:space="preserve"><tspan
           id="tspan1323-1"
           style="font-size:3.66660333px;line-height:0.5;text-align:center;text-anchor:middle;stroke-width:0.19642515"
           y="251.35495"
           x="269.04919"
           sodipodi:role="line">ajout/suppression/modification </tspan><tspan
           id="tspan1866"
           style="font-size:3.66660333px;line-height:0.5;text-align:center;text-anchor:middle;stroke-width:0.19642515"
           y="255.28345"
           x="268.54791"
           sodipodi:role="line">d'aliments dans l'application</tspan></text>
    </g>
    <path
       style="fill:none;stroke:#000000;stroke-width:0.26458332px;stroke-linecap:butt;stroke-linejoin:miter;stroke-opacity:1"
       d="m 240.47995,182.73262 -10.03362,-56.3407"
       id="path1878"
       inkscape:connector-curvature="0"
       sodipodi:nodetypes="cc" />
    <text
       xml:space="preserve"
       style="font-style:normal;font-variant:normal;font-weight:normal;font-stretch:normal;font-size:10.58333302px;line-height:1.25;font-family:Chilanka;-inkscape-font-specification:Chilanka;letter-spacing:0px;word-spacing:0px;fill:#000000;fill-opacity:1;stroke:none;stroke-width:0.26458332"
       x="104.79645"
       y="98.149704"
       id="text1455-9"
       inkscape:transform-center-x="5.3453905"
       inkscape:transform-center-y="-8.5526297"><tspan
         sodipodi:role="line"
         id="tspan1453-4"
         x="104.79645"
         y="98.149704"
         style="stroke-width:0.26458332">USER CASE</tspan></text>
  </g>
</svg>
